%YAML 1.1
%TAG !u! tag:unity3d.com,2011:
--- !u!1045 &1
EditorBuildSettings:
  m_ObjectHideFlags: 0
  serializedVersion: 2
  m_Scenes:
  - enabled: 1
    path: Assets/Scenes/InitialScene.unity
    guid: 447c9712ed61bc54eb6ca45a30102851
  - enabled: 1
    path: Assets/Scenes/MainScene.unity
    guid: 5cb8f80bd9fdc084595aa47a6e59c848
  m_configObjects: {}
